{
    "name": "ArchiTech.VideoPlayerShim.ImportHandler",
    "references": [
        "AVProVideo.Runtime",
        "AVProVideo.Editor",
        "VRC.SDKBase.Editor"
    ],
    "includePlatforms": [
        "Editor"
    ],
    "excludePlatforms": [],
    "allowUnsafeCode": false,
    "overrideReferences": false,
    "precompiledReferences": [
        "VRCSDKBase.dll",
        "VRCSDK3.dll"
    ],
    "autoReferenced": true,
    "defineConstraints": [],
    "versionDefines": [],
    "noEngineReferences": false
}